module todograph.thing/backend

go 1.22

require (
	github.com/antlr4-go/antlr/v4 v4.13.0 // indirect
	github.com/libsql/sqlite-antlr4-parser v0.0.0-20240327125255-dbf53b6cbf06 // indirect
	github.com/tursodatabase/go-libsql v0.0.0-20240429120401-651096bbee0b // indirect
	golang.org/x/exp v0.0.0-20230515195305-f3d0a9c9a5cc // indirect
)
